{
  "name": "January",
  "abbreviation": "Jan",
    "talks": [
      {
        "presenter": {
          "name": "Ben Schmitt"
        },
        "presentation": {
          "title": "DNS Tunneling with dnscat2",
          "links": [
            {
              "url": "https://youtu.be/vI6uX5DBx6Q",
              "type": "youtube"
          }
          ]
        }
    },
      {
        "presenter": {
          "name": "Tom Pohl and Nick Starke"
        },
        "presentation": {
          "title": "WeevBot - Browser Based DNS Exfiltration",
          "links": [
            {
              "url": "https://youtu.be/zN2WijXEY9k",
              "type": "youtube"
          }
          ]
        }
    },
      {
        "presenter": {
          "name": "Aaron Tekippe"
        },
        "presentation": {
          "title": "Finding a needle in a haystack: Utilizing DNS to detect threats",
          "links": [
            {
              "url": "https://youtu.be/wR_O3485-Gw",
              "type": "youtube"
          }
          ]
        }
    }
    ]
}