{
  "name": "July",
  "abbreviation": "Jul",
  "talks": [
    {
      "presenter": {
        "name": "Ben Schmitt and Nate Subra"
      },
      "presentation": {
        "title": "Memory Forensics 101.5",
        "links": [
          {
            "url": "https://youtu.be/bR5xVgbs_hM",
            "type": "youtube"
          }
        ]
      }
    },
    {
      "presenter": {
        "name": "Arden Meyer"
      },
      "presentation": {
        "title": "TOOOL: Lockpicking and physical security 10",
        "links": [
          {
            "url": "https://youtu.be/NDRUZdw1btM",
            "type": "youtube"
          }
        ]
      }
    }
  ]
}