{
  "name": "August",
  "abbreviation": "Aug",
  "talks": [
    {
      "presenter": {
        "name": "Aaron Blythe"
      },
      "presentation": {
        "title": "Introduction to Shodan",
        "links": [
          {
            "url": "https://youtu.be/ubeTlQwwUss",
            "type": "youtube"
          }
        ]
      }
    },
    {
      "presenter": {
        "name": "SecDSM Crew"
      },
      "presentation": {
        "title": "Blackhat/BSidesLV/DEF CON recap"
      }
    }
  ]
}