{
  "name": "March",
  "abbreviation": "Mar",
  "talks": [
    {
      "presenter": {
        "name": "@t0w3ntum and @ns"
      },
      "presentation": {
        "title": "OSCP in Response",
        "links": [
          {
            "url": "https://youtu.be/OCs1E0vP7Oc",
            "type": "youtube"
          }
        ]
      }
    },
    {
      "presenter": {
        "name": "@ns"
      },
      "presentation": {
        "title": "Exotic Exfil",
        "links": [
          {
            "url": "https://youtu.be/Qky7RDF5Yk8",
            "type": "youtube"
          }
        ]
      }
    }
  ]
}